item_id:: int(10)| item_name:: varchar(20)| price_item_table:: double(0;200;3)| price_item_take_away:: double(0;180;3)| discount_premium_client:: double(0;50;1)
1005010|Palomilla Steak|18|17.999|25
1005012|Milanesa Steak|18|17.999|20
1005013|Breaded Steak|17.5|17|20
1005014|T-Bone Steak|17.5|17|20
1005015|Ribeye Steak|280|17|20.5
1005016|Sauteed Beef|14.59|14.059|20
1005017|Spanish Beef Stew|14.599|14.059|20
1005018|Roast Eye Round Stuffed|20|18|20
1005019|Italian Liver|10|9.599|25
1005020|Pork Chops|10|9.599|20
1005021|Ground Beef in Sauce|10|9.599|20
1005022|Stuffed Plantain|10|9.599|10
1005023|Sauteed Chicken Tenderloins|12|11.5|10
1005024|Breaded Steak Napolitana|11.5|11.5|10
1005025|Shrimp in Garlic Sauce|9.5|9.5|10
1005026|King Fish in Spanish Sauce|9.55|9.55|10.5
1005027|Chicken Shrimp Steak|15|14|10
1005028|Grilled Chicken Breast Filet|10|8|10
1005029|Grilled Skirt Steak|10|8|10
1005030|Iced Tea|2.50|2.50|0
1005031|Expresso|1.50|1.50|0
1005032|Domestic Beer|3.59|3.59|5
1005033|Glass|1.50|1.50|5
1005034|Wine: White Red Rose|25|25|5
1005035|Onions|4.99|4.99|5.5
1005036|Cheese|4.99|4.99|5.5
1005037|Ham|3.99|3.99|5.5
1005038|Sausage|3.99|3.99|5.5
1005039|Beacon|5.99|5.955|5.5
1005040|Tomatoes|4.99|4.559|5.5
1005041|Green Pepers|3.99|3.99|5.5
1005042|Cuban Sandwich|3.99|3.99|5.5
1005043|Steak|8|7|5.5
1005044|Roast Eye Round|9|8|5.5
1005045|Shredded Beef|9.99|9.99|5.5
1005046|Breaded Fish Filet|10|9.99|5.5
1005047|Breaded Steak|8.99|8.99|5.5
1005048|Ham & Cheese|5.0|4.559|5.5
1005049|Midnight|5.0|4.559|5.5
1005050|Ham & Extra Cheese|5.5|5.499|5.5
1005051|Ham & Extra2 Cheese|5.5|5.499|5.5
